%YAML 1.1
%TAG !u! tag:unity3d.com,2011:
--- !u!114 &11400000
MonoBehaviour:
  m_ObjectHideFlags: 0
  m_CorrespondingSourceObject: {fileID: 0}
  m_PrefabInstance: {fileID: 0}
  m_PrefabAsset: {fileID: 0}
  m_GameObject: {fileID: 0}
  m_Enabled: 1
  m_EditorHideFlags: 0
  m_Script: {fileID: 11500000, guid: eef8d824ea7b63742966aaa0e94ac383, type: 3}
  m_Name: FMODStudioSettings
  m_EditorClassIdentifier: 
  HasSourceProject: 1
  HasPlatforms: 1
  sourceProjectPath: Assets\Game\Audio\GitGame\GitGame.fspro
  SourceProjectPathUnformatted: Assets\Game\Audio\GitGame\GitGame.fspro
  SourceBankPathUnformatted: Assets\Game\Audio\GitGame\Build
  AutomaticEventLoading: 1
  AutomaticSampleLoading: 0
  ImportType: 0
  TargetAssetPath: 
  LoggingLevel: 2
  SpeakerModeSettings:
  - Platform: 2
    Value: 3
  SampleRateSettings:
  - Platform: 1
    Value: 48000
  - Platform: 2
    Value: 0
  LiveUpdateSettings:
  - Platform: 1
    Value: 1
  - Platform: 2
    Value: 0
  OverlaySettings:
  - Platform: 1
    Value: 1
  - Platform: 2
    Value: 0
  LoggingSettings:
  - Platform: 1
    Value: 1
  - Platform: 2
    Value: 0
  BankDirectorySettings:
  - Platform: 2
    Value: Desktop
  VirtualChannelSettings:
  - Platform: 1
    Value: 1024
  - Platform: 2
    Value: 128
  RealChannelSettings:
  - Platform: 1
    Value: 256
  - Platform: 2
    Value: 32
  Plugins: []
  MasterBanks: []
  Banks: []
