%YAML 1.1
%TAG !u! tag:unity3d.com,2011:
--- !u!1045 &1
EditorBuildSettings:
  m_ObjectHideFlags: 0
  serializedVersion: 2
  m_Scenes:
  - enabled: 1
    path: Assets/CreditSplash/Scenes/CreditSplash.unity
    guid: 7d8f38b4f3e40d040b482d9a3b1e7a66
  - enabled: 1
    path: Assets/Game/Scenes/Menu.unity
    guid: 0b0569c098effae4b9fb7e3c2dc10b5d
  - enabled: 1
    path: Assets/Game/Scenes/DW_FINAL_GAME.unity
    guid: 646d95ab85b18f54cbfd53c8ea3b8da3
  - enabled: 1
    path: Assets/Game/Scenes/SebMinigame.unity
    guid: 95621fc30e424e84d944c0a98003d277
  - enabled: 1
    path: Assets/Game/Scenes/KevanScene.unity
    guid: cb080e2a3c18fe04d947be879ae0984e
  - enabled: 1
    path: Assets/Game/Quinn_Minigame/Quinn_Scene/quinn_scene.unity
    guid: b2015aca864dc364abf3103635bac119
  m_configObjects: {}
